// Jest Snapshot v1, https://goo.gl/fbAQLP

exports[`Question renders correctly 1`] = `
<div
  className="ui card"
  href={undefined}
  onClick={[Function]}
>
  <div
    className="content"
  >
    <div
      className="header"
    />
    <div
      className="meta"
    >
      Invalid Date
    </div>
    <div
      className="description"
    />
  </div>
</div>
`;
